Integrating Computation Into Statistics Courses: Another Worked Example
…
Writing a basic loop and storing the results

Making a histogram with an overlayed density curve in ggplot

This sampling can also be introduced using more advanced programming constructs, namely the map and reduce functions from the purrr package (part of the tidyverse). The above loop is simple enough that this probably isnt necessary, but it is potentially a good example to help illustrate the use of map/reduce and working with data in lists in R. These concepts certainly arent new, and are implemented in base R through apply, lapply, sapply, vapply the implementations in the purrr package provide an API that is consistent in its inputs/outputs, and much simpler to use and learn.

set.seed(34879)
B <- 10000
thesample <- runif(B) %>% # Generate the B unif(0,1) realizations in one line
  map(~c(x = cdf_inv(.x))) %>% # Apply the cdf_inv function to each element of the above vector, returning a list of named vectors
  reduce(bind_rows) # Concatenate the named vectors into a data_frame

thesample

## # A tibble: 10,000 x 1
##             x
##         <dbl>
##  1  0.9558366
##  2  1.1489711
##  3 -0.9452934
##  4 -0.2579777
##  5  0.7454143
##  6  0.8171312
##  7  0.8668995
##  8  0.3511792
##  9 -0.9762473
## 10 -0.8888388
## # ... with 9,990 more rows
…
