STA261 Summer 2018 Lecture 5:
…
ttc

## # A tibble: 74 x 4
##                         station to_trains from_trains  total
##                           <chr>     <dbl>       <dbl>  <dbl>
##  1          Bloor (line 1, Y-U)    103975      112214 216189
##  2          Yonge (line 2, B-D)     95407       87831 183238
##  3     St. George (line 1, Y-U)     63367       72836 136203
##  4     St. George (line 2, B-D)     64125       64851 128976
##  5                        Union     58259       60187 118446
##  6                        Finch     47895       52924 100819
##  7                       Dundas     37296       44038  81334
##  8 Sheppard-Yonge (line 1, Y-U)     37592       39227  76819
##  9                     Eglinton     33116       39630  72746
## 10        Kennedy (line 2, B-D)     34663       35125  69788
## # ... with 64 more rows
…
