Supplementary R code for lectures 2 and 3, STA303 summer 2018
…
# What are all these parameters estimating?
group_means_int <- pvc_t %>%
  group_by(operator,resin) %>%
  summarize(psize = mean(psize))
group_means_int

## # A tibble: 24 x 3
## # Groups:   operator [?]
##    operator resin psize
##    <fct>    <fct> <dbl>
##  1 1        1      36.2
##  2 1        2      35.2
##  3 1        3      30.7
##  4 1        4      29.7
##  5 1        5      31.8
##  6 1        6      30.2
##  7 1        7      32.9
##  8 1        8      36.8
##  9 2        1      35.4
## 10 2        2      35.4
## # ... with 14 more rows
…
